<?xml version="1.0" encoding="utf-8"?>
<svg version="1.1" id="Layer_1" xmlns="http://www.w3.org/2000/svg" x="0px" y="0px" width="96px"
    height="96px" viewBox="0 0 96 96" enable-background="new 0 0 96 96" xml:space="preserve">
	<path fill="#0BA961" d="M2.25,18.625c0-0.093,0-0.187,0-0.28c0.208-0.902,0.661-1.496,1.623-1.813
		c7.034-2.327,14.044-4.723,21.072-7.066c4.588-1.529,9.193-3.008,13.793-4.501c0.895-0.29,1.393-0.159,1.954,0.598
		c1.758,2.373,3.49,4.764,5.228,7.151c0.683,0.938,1.355,1.884,2.078,2.89c0.565-0.78,1.081-1.494,1.599-2.206
		c1.932-2.65,3.852-5.308,5.813-7.936c0.226-0.303,0.662-0.534,1.039-0.612c0.33-0.068,0.725,0.096,1.074,0.21
		c6.542,2.137,13.088,4.264,19.619,6.431c5.105,1.694,10.19,3.447,15.289,5.16c0.723,0.242,1.07,0.747,1.229,1.441
		c0.021,0.087,0.06,0.17,0.091,0.255c0,0.093,0,0.187,0,0.28c-0.128,0.312-0.215,0.647-0.39,0.929
		c-0.587,0.95-1.181,1.897-1.814,2.816c-1.901,2.761-3.818,5.51-5.739,8.257c-0.234,0.335-0.32,0.577-0.035,0.973
		c1.575,2.192,3.129,4.402,4.652,6.63c1.138,1.662,2.219,3.361,3.326,5.044c0,0.249,0,0.498,0,0.747
		c-0.037,0.063-0.082,0.122-0.107,0.189c-0.285,0.771-0.77,1.292-1.592,1.555c-2.17,0.695-4.316,1.464-6.481,2.172
		c-0.417,0.136-0.521,0.331-0.524,0.753c-0.048,8.666-0.107,17.332-0.182,25.998c-0.01,1.118-0.111,2.236-0.173,3.354
		c-0.039,0.708-0.353,1.154-1.074,1.386c-1.874,0.601-3.722,1.28-5.59,1.901c-9.735,3.234-19.474,6.458-29.208,9.698
		c-0.551,0.183-1.046,0.213-1.612,0.024c-6.677-2.22-13.366-4.405-20.043-6.626c-4.882-1.623-9.748-3.299-14.632-4.918
		c-0.836-0.277-1.209-0.771-1.235-1.621c-0.043-1.414-0.155-2.827-0.167-4.241c-0.073-8.37-0.125-16.741-0.186-25.111
		c-0.001-0.124-0.011-0.247-0.017-0.388c-0.194-0.07-0.382-0.141-0.571-0.207c-2.224-0.777-4.442-1.57-6.674-2.322
		c-0.692-0.233-1.074-0.696-1.3-1.344c-0.041-0.116-0.087-0.23-0.13-0.345c0-0.249,0-0.498,0-0.747
		c0.264-0.433,0.507-0.88,0.795-1.296c2.356-3.394,4.709-6.789,7.096-10.161c0.316-0.447,0.316-0.732,0.011-1.167
		C8.028,27.53,5.911,24.5,3.836,21.441C3.233,20.553,2.774,19.566,2.25,18.625z M50.386,49.993
		c-0.042,0.013-0.085,0.025-0.128,0.038c-0.15,11.99-0.166,23.981-0.001,36.063c10.179-3.41,20.253-6.784,30.277-10.143
		c0-8.803,0-17.52,0-26.283c-0.259,0.071-0.438,0.112-0.612,0.17c-4.547,1.5-9.09,3.015-13.643,4.5
		c-3.079,1.005-6.172,1.965-9.257,2.953c-0.479,0.153-0.896,0.038-1.271-0.241c-0.26-0.193-0.514-0.417-0.704-0.675
		c-1.266-1.712-2.513-3.437-3.767-5.157C50.982,50.81,50.684,50.401,50.386,49.993z M45.75,86.073
		c0.148-12.075,0.146-24.059-0.072-36.058c-0.209,0.178-0.36,0.369-0.502,0.567c-1.168,1.629-2.327,3.266-3.506,4.887
		c-0.337,0.463-0.712,0.904-1.11,1.318c-0.5,0.521-1.093,0.69-1.823,0.451c-1.87-0.616-3.759-1.173-5.629-1.785
		c-5.7-1.866-11.396-3.748-17.093-5.622c-0.181-0.06-0.371-0.092-0.603-0.147c0,0.205,0,0.344,0,0.482
		c0.003,8.448,0.009,16.897,0.002,25.346c0,0.322,0.102,0.448,0.4,0.548c8.35,2.791,16.695,5.593,25.042,8.391
		C42.456,84.987,44.058,85.513,45.75,86.073z M75.863,31.12c-0.211-0.082-0.317-0.129-0.428-0.165
		c-8.737-2.899-17.48-5.785-26.209-8.712c-0.922-0.31-1.731-0.289-2.639,0.017c-8.677,2.92-17.365,5.809-26.05,8.707
		c-0.103,0.034-0.199,0.084-0.328,0.139c0.088,0.059,0.123,0.093,0.165,0.107c9.054,3.017,18.108,6.036,27.168,9.037
		c0.282,0.094,0.65,0.089,0.933-0.005c8.944-2.963,17.884-5.943,26.824-8.922C75.457,31.271,75.611,31.211,75.863,31.12z
		 M44.447,43.936c-0.257-0.094-0.414-0.155-0.573-0.208c-9.813-3.298-19.628-6.593-29.439-9.899
		c-0.275-0.093-0.414-0.048-0.574,0.182c-1.878,2.707-3.766,5.407-5.648,8.111c-0.049,0.071-0.07,0.162-0.125,0.291
		c0.705,0.266,1.376,0.545,2.064,0.776c9.169,3.081,18.341,6.15,27.507,9.241c0.454,0.153,0.692,0.062,0.957-0.31
		c1.4-1.96,2.828-3.901,4.234-5.857C43.384,45.521,43.886,44.756,44.447,43.936z M44.42,18.323
		c-0.155-0.242-0.272-0.438-0.403-0.626c-1.08-1.558-2.147-3.125-3.248-4.668c-0.739-1.038-1.528-2.04-2.288-3.062
		c-0.191-0.258-0.396-0.324-0.714-0.212c-0.906,0.32-1.826,0.6-2.737,0.905c-8.084,2.704-16.167,5.41-24.25,8.117
		c-0.89,0.298-1.774,0.614-2.691,0.932c0.078,0.158,0.115,0.259,0.173,0.345c1.807,2.66,3.625,5.313,5.416,7.983
		c0.286,0.426,0.564,0.381,0.971,0.245c8.585-2.868,17.175-5.723,25.762-8.584C41.734,19.257,43.048,18.794,44.42,18.323z
		 M51.6,18.177c0.201,0.092,0.324,0.158,0.453,0.205c1.662,0.599,3.314,1.226,4.988,1.785c8.141,2.72,16.287,5.418,24.426,8.14
		c0.41,0.137,0.635,0.083,0.875-0.278c1.771-2.663,3.563-5.315,5.345-7.972c0.072-0.108,0.118-0.235,0.187-0.371
		c-0.228-0.084-0.414-0.159-0.604-0.224c-2.876-0.977-5.747-1.966-8.629-2.923c-6.794-2.258-13.594-4.496-20.387-6.758
		c-0.419-0.14-0.641-0.037-0.879,0.296c-1.26,1.755-2.541,3.493-3.801,5.247C52.914,16.243,52.285,17.185,51.6,18.177z
		 M51.598,43.906c0.061,0.126,0.084,0.199,0.125,0.258c1.941,2.718,3.886,5.433,5.822,8.154c0.182,0.255,0.367,0.242,0.635,0.152
		c6.102-2.031,12.212-4.036,18.309-6.084c3.627-1.218,7.234-2.5,10.85-3.757c0.195-0.068,0.377-0.171,0.595-0.272
		c-0.137-0.21-0.233-0.368-0.338-0.52c-1.607-2.307-3.212-4.617-4.825-6.919c-0.811-1.157-0.823-1.167-2.156-0.723
		c-8.952,2.98-17.902,5.966-26.852,8.953C53.047,43.386,52.338,43.646,51.598,43.906z" />
</svg>
