<?xml version="1.0" encoding="utf-8"?>
<svg version="1.1" id="Layer_1" xmlns="http://www.w3.org/2000/svg" x="0px" y="0px"
    viewBox="0 0 96 96" style="enable-background:new 0 0 96 96;" xml:space="preserve">
	<path class="st2"
        d="M10.7,24.2h75c2.8,0,5-2.3,5-5s-2.3-5-5-5h-75c-2.8,0-5,2.3-5,5S8,24.2,10.7,24.2z" />
    <path class="st2"
        d="M85.7,45.2h-75c-2.8,0-5,2.3-5,5s2.3,5,5,5h75c2.8,0,5-2.3,5-5S88.4,45.2,85.7,45.2z" />
    <path class="st2"
        d="M85.7,76.4h-75c-2.8,0-5,2.3-5,5v0c0,2.7,2.3,5,5,5h75c2.8,0,5-2.3,5-5v0C90.7,78.7,88.4,76.4,85.7,76.4z" />
</svg>