<?xml version="1.0" encoding="utf-8"?>
<svg version="1.1" id="Layer_1" xmlns="http://www.w3.org/2000/svg" x="0px" y="0px" width="96px"
    height="96px" viewBox="0 0 96 96" enable-background="new 0 0 96 96" xml:space="preserve">
	<path fill="#0BA961" d="M95,26.877c-1.06,1.07-2.104,2.156-3.182,3.208c-2.446,2.389-4.891,4.78-7.375,7.128
		c-0.524,0.496-0.538,0.837-0.187,1.441c1.803,3.109,3.556,6.249,5.322,9.38c0.801,1.419,0.648,1.952-0.782,2.771
		c-1.495,0.855-2.97,1.748-4.497,2.542c-0.67,0.348-0.848,0.778-0.844,1.492c0.032,4.023-0.01,8.049,0.032,12.073
		c0.012,1.102-0.395,1.762-1.354,2.313c-10.737,6.177-21.46,12.38-32.165,18.611c-1.04,0.605-1.86,0.619-2.916,0.004
		C36.352,81.604,25.627,75.404,14.89,69.229c-0.959-0.553-1.366-1.212-1.354-2.313c0.042-4.024,0-8.05,0.031-12.073
		c0.005-0.713-0.169-1.145-0.842-1.493c-1.527-0.794-3.001-1.688-4.496-2.544c-1.437-0.823-1.586-1.349-0.785-2.77
		c1.767-3.131,3.52-6.27,5.323-9.38c0.35-0.604,0.335-0.944-0.187-1.441c-3.045-2.901-6.053-5.841-9.065-8.775
		C3,27.937,2.521,27.398,2.024,26.877c0-0.303,0-0.605,0-0.908c0.483-0.381,0.914-0.879,1.458-1.126
		C14.45,19.879,25.436,14.955,36.4,9.985c1.047-0.475,1.786-0.322,2.605,0.427c2.322,2.121,4.694,4.187,7.049,6.272
		c0.808,0.715,1.624,1.42,2.465,2.155c0.412-0.361,0.753-0.655,1.091-0.954c2.829-2.506,5.67-5,8.479-7.53
		c0.766-0.69,1.466-0.848,2.449-0.402c11.021,4.992,22.062,9.942,33.085,14.93c0.518,0.234,0.921,0.718,1.377,1.087
		C95,26.272,95,26.574,95,26.877z M49.988,84.499c0.265-0.125,0.453-0.196,0.626-0.297c9.83-5.683,19.661-11.363,29.474-17.074
		c0.285-0.165,0.546-0.641,0.55-0.974c0.04-3.356,0.024-6.713,0.021-10.07c0-0.162-0.035-0.324-0.064-0.574
		c-0.408,0.225-0.722,0.392-1.031,0.567c-7.08,4.041-14.16,8.083-21.241,12.122c-1.291,0.736-1.792,0.644-2.694-0.526
		c-1.716-2.228-3.422-4.461-5.124-6.697c-0.135-0.178-0.206-0.402-0.306-0.604c-0.07,0.072-0.14,0.146-0.21,0.218
		C49.988,68.525,49.988,76.462,49.988,84.499z M16.361,55.492c0,3.623,0.019,7.069-0.017,10.516
		c-0.007,0.644,0.231,0.952,0.762,1.258c9.707,5.593,19.402,11.207,29.1,16.814c0.247,0.144,0.501,0.273,0.801,0.437
		c0-8.08,0-16.028,0-24.161c-1.938,2.529-3.753,4.906-5.577,7.273c-0.942,1.224-1.421,1.313-2.757,0.552
		c-7.107-4.055-14.213-8.112-21.321-12.166C17.072,55.854,16.783,55.713,16.361,55.492z M5.904,26.806
		c0.271,0.286,0.428,0.465,0.599,0.631c2.692,2.611,5.399,5.207,8.067,7.842c0.495,0.489,0.859,0.529,1.475,0.218
		c9.617-4.861,19.248-9.695,28.874-14.536c0.336-0.169,0.666-0.351,1.078-0.57c-0.332-0.303-0.594-0.549-0.862-0.787
		c-2.403-2.123-4.818-4.231-7.199-6.377c-0.466-0.42-0.809-0.494-1.403-0.224c-6.427,2.924-12.871,5.809-19.31,8.706
		C13.485,23.392,9.749,25.075,5.904,26.806z M91.076,26.82c-0.163-0.086-0.259-0.145-0.36-0.191
		c-10.151-4.574-20.301-9.151-30.464-13.697c-0.258-0.115-0.763-0.007-0.987,0.188c-2.494,2.155-4.956,4.347-7.426,6.531
		c-0.264,0.234-0.515,0.484-0.788,0.741c0.128,0.083,0.176,0.12,0.229,0.146c9.977,5.019,19.955,10.032,29.922,15.069
		c0.535,0.271,0.811,0.093,1.166-0.252c2.727-2.662,5.467-5.31,8.201-7.966C90.735,27.228,90.88,27.042,91.076,26.82z M50.007,23.05
		c-0.037,0.209-0.066,0.296-0.066,0.383c-0.004,5.777-0.011,11.554,0.016,17.331c0.002,0.28,0.251,0.674,0.5,0.821
		c3.304,1.948,6.622,3.871,9.956,5.766c0.251,0.143,0.702,0.135,0.97,0.008c0.898-0.427,1.756-0.939,2.628-1.42
		c4.97-2.74,9.94-5.479,15.039-8.291C69.334,32.765,59.72,27.933,50.007,23.05z M47.09,23.014
		c-9.781,4.918-19.395,9.752-29.06,14.611c0.159,0.117,0.227,0.179,0.305,0.222c5.763,3.178,11.524,6.361,17.306,9.506
		c0.28,0.152,0.816,0.077,1.12-0.095c3.232-1.83,6.434-3.714,9.665-5.546c0.525-0.298,0.682-0.633,0.677-1.214
		c-0.026-3.508-0.013-7.017-0.013-10.525C47.09,27.707,47.09,25.441,47.09,23.014z M10.266,48.737
		c9.797,5.593,19.518,11.142,29.297,16.724c2.292-2.994,4.542-5.936,6.841-8.94c-10.33-5.693-20.58-11.341-30.901-17.028
		C13.741,42.603,12.02,45.64,10.266,48.737z M50.616,56.522c2.324,3.032,4.578,5.975,6.849,8.938
		c9.808-5.6,19.525-11.147,29.296-16.726c-1.778-3.136-3.5-6.17-5.243-9.242C71.186,45.187,60.956,50.825,50.616,56.522z M39,49.236
		c3.149,1.736,6.102,3.382,9.081,4.978c0.262,0.14,0.753,0.062,1.043-0.093c2.395-1.282,4.768-2.607,7.147-3.92
		c0.538-0.297,1.076-0.596,1.73-0.959c-0.2-0.128-0.273-0.178-0.351-0.223c-2.898-1.683-5.791-3.376-8.709-5.027
		c-0.238-0.135-0.699-0.089-0.957,0.055c-2.028,1.135-4.033,2.315-6.044,3.481C41.009,48.069,40.077,48.61,39,49.236z" />
</svg>