<?xml version="1.0" encoding="utf-8"?>
<svg version="1.1" id="Layer_1" xmlns="http://www.w3.org/2000/svg" x="0px" y="0px"
    viewBox="0 0 96 96" style="enable-background:new 0 0 96 96;" xml:space="preserve">
<path class="st0" d="M48,13.3c12.2,0,24.3,0,36.5,0c5.3,0,9.4,3.4,10.4,8.5c0.2,0.8,0.2,1.7,0.2,2.5c0,15.4,0,30.7,0,46.1
	c0,6.4-4.5,10.9-10.9,10.9c-24.2,0-48.3,0-72.5,0C5.3,81.4,0.8,77,0.8,70.6c0-15.5,0-31,0-46.5c0-6.3,4.5-10.7,10.8-10.7
	C23.7,13.3,35.8,13.3,48,13.3z M47.9,18c-12,0-24,0-36,0c-4.2,0-6.5,2.3-6.5,6.5c0,15.3,0,30.6,0,46c0,4.1,2.4,6.5,6.5,6.5
	c23.9,0,47.9,0,71.8,0c4.2,0,6.5-2.4,6.5-6.5c0-15.4,0-30.7,0-46.1c0-4-2.3-6.4-6.4-6.4C72,18,60,18,47.9,18z" />
    <path class="st0" d="M14.8,89.9c-1.5,0-3,0-4.5,0c-1.5,0-2.4-1-2.4-2.3c0-1.3,0.9-2.3,2.4-2.4c3.1,0,6.2,0,9.3,0
	c1.4,0,2.4,1,2.5,2.3c0,1.3-1,2.3-2.5,2.4C17.9,89.9,16.4,89.9,14.8,89.9z" />
    <path class="st0" d="M80.8,89.9c-1.5,0-3,0-4.5,0c-1.4,0-2.4-1-2.5-2.3c0-1.3,1-2.4,2.5-2.4c3.1,0,6.1,0,9.2,0c1.5,0,2.5,1,2.4,2.4
	c0,1.3-1,2.2-2.5,2.3C83.9,89.9,82.4,89.9,80.8,89.9z" />
    <path class="st0" d="M37.9,74c-7.4,0-14.8,0-22.2,0C11.4,74,9,71.6,9,67.4c0-13.3,0-26.5,0-39.8c0-4.2,2.4-6.7,6.6-6.7
	c14.8,0,29.6,0,44.4,0c4.1,0,6.8,2.8,6.7,6.7c-0.1,13.2,0,26.4,0,39.6c0,4.3-2.3,6.7-6.7,6.7C52.7,74,45.3,74,37.9,74z M37.8,25.7
	c-7.4,0-14.8,0-22.2,0c-1.6,0-1.9,0.3-1.9,1.9c0,13.3,0,26.5,0,39.8c0,1.7,0.3,2,2,2c14.8,0,29.6,0,44.4,0c1.7,0,2-0.3,2-2
	C62,54.2,62,41,62,27.8c0-1.9-0.3-2.1-2.1-2.1C52.5,25.7,45.1,25.7,37.8,25.7z" />
    <path class="st0" d="M71.5,30.9c0-1.5,0-3,0-4.5c0-1.6,0.9-2.5,2.4-2.5c3.1,0,6.1,0,9.2,0c1.6,0,2.5,0.9,2.5,2.6c0,3,0,6,0,8.9
	c0,1.7-0.9,2.6-2.6,2.6c-2.9,0-5.9,0-8.8,0c-1.8,0-2.6-0.9-2.7-2.7C71.5,33.9,71.5,32.4,71.5,30.9z M76.3,28.6c0,1.6,0,3.1,0,4.6
	c1.6,0,3.1,0,4.5,0c0-1.6,0-3,0-4.6C79.2,28.6,77.8,28.6,76.3,28.6z" />
    <path class="st0" d="M85.6,49.9c0,0.8,0.1,1.5,0,2.3c-0.1,1.4-1.1,2.3-2.4,2.3c-1.3,0-2.3-0.9-2.3-2.3c-0.1-1.6-0.1-3.2,0-4.7
	c0.1-1.4,1-2.3,2.3-2.3c1.3,0,2.3,0.9,2.4,2.4C85.7,48.3,85.6,49.1,85.6,49.9C85.6,49.9,85.6,49.9,85.6,49.9z" />
    <path class="st0" d="M85.6,64c0,0.8,0.1,1.5,0,2.3c-0.1,1.4-1.1,2.3-2.4,2.3c-1.3,0-2.3-0.9-2.3-2.3c-0.1-1.6-0.1-3.2,0-4.7
	c0.1-1.4,1-2.3,2.3-2.3c1.3,0,2.3,0.9,2.4,2.4C85.7,62.4,85.6,63.2,85.6,64C85.6,64,85.6,64,85.6,64z" />
    <path class="st0" d="M76.2,49.8c0,0.8,0,1.6,0,2.4c-0.1,1.4-1.1,2.3-2.3,2.3c-1.3,0-2.3-0.9-2.3-2.3c0-1.6,0-3.2,0-4.9
	c0-1.3,1-2.2,2.3-2.2c1.3,0,2.3,0.9,2.4,2.2C76.2,48.2,76.2,49,76.2,49.8z" />
    <path class="st0" d="M76.2,64.1c0,0.8,0,1.5,0,2.3c-0.1,1.3-1.1,2.3-2.4,2.2c-1.3,0-2.2-0.9-2.3-2.2c-0.1-1.7-0.1-3.3,0-5
	c0-1.3,1-2.2,2.3-2.2c1.3,0,2.2,0.9,2.4,2.2c0,0.1,0,0.1,0,0.2C76.2,62.5,76.2,63.3,76.2,64.1C76.2,64.1,76.2,64.1,76.2,64.1z" />
    <path class="st0" d="M52.6,47.4c0-2.6,0-5.2,0-7.8c0-1.7,1-2.7,2.5-2.6c1.4,0.1,2.3,1.1,2.3,2.7c0,2.9,0,5.8,0,8.7
	c0,2.4,0,4.7,0,7.1c0,1.7-1.1,2.7-2.6,2.6c-1.3-0.1-2.1-1.1-2.2-2.6C52.6,52.8,52.6,50.1,52.6,47.4z" />
</svg>