<?xml version="1.0" encoding="utf-8"?>
<svg version="1.1" id="Layer_1" xmlns="http://www.w3.org/2000/svg" x="0px" y="0px"
    viewBox="0 0 72 72" style="enable-background:new 0 0 72 72;" xml:space="preserve">
<path class="st0" d="M10.9,63.4c0,0-0.1,1.5,1.4,1.5c1.9,0,17.4,0,17.4,0l0-14.3c0,0-0.2-2.4,2-2.4H39c2.7,0,2.5,2.4,2.5,2.4
		l0,14.2c0,0,14.7,0,17,0c1.9,0,1.8-1.9,1.8-1.9V36.6l-24-21.4L10.9,36.6C10.9,36.6,10.9,63.4,10.9,63.4z" />
    <path class="st0"
        d="M1.5,34.6c0,0,2.2,4,6.9,0l28.2-23.9l26.4,23.7c5.5,3.9,7.5,0,7.5,0L36.6,3.8L1.5,34.6z" />
    <polygon class="st0" points="62.4,10.7 55.6,10.7 55.6,19 62.4,24.7 	" />
</svg>