<?xml version="1.0" encoding="utf-8"?>
<svg version="1.1" id="Layer_1" xmlns="http://www.w3.org/2000/svg" x="0px" y="0px" viewBox="0 0 96 96"
    style="enable-background:new 0 0 96 96;" xml:space="preserve">
<path class="st0" d="M16.2,40.4H5.4c-0.3,0-0.6-0.3-0.6-0.6v-2.8c0-0.3,0.3-0.6,0.6-0.6h10.8c0.3,0,0.6,0.3,0.6,0.6v2.8
		C16.8,40.2,16.5,40.4,16.2,40.4" />
    <path class="st0" d="M16.2,48H2.4c-0.3,0-0.6-0.3-0.6-0.6v-2.8c0-0.3,0.3-0.6,0.6-0.6h13.8c0.3,0,0.6,0.3,0.6,0.6v2.8
		C16.8,47.7,16.5,48,16.2,48" />
    <path class="st0" d="M76.8,28.6H61.5c-1.1,0-1.9,0.9-1.9,1.9v21h-3.8V19.1c0-1.1-0.9-1.9-1.9-1.9H31c-1.1,0-1.9,0.9-1.9,1.9v9.6
		H11.9c-1.1,0-1.9,0.9-1.9,1.9v1.9h9.4v0h2.1v6.3c0,1.1,0.9,1.9,1.9,1.9c1.1,0,1.9-0.9,1.9-1.9v-6.3h3.8v19.1h-9.7h-5.5H9.9H4.2
		c-1.1,0-1.9,0.9-1.9,1.9v19.1c0,1.1,0.9,1.9,1.9,1.9h5.9c0.9,4.4,4.7,7.6,9.4,7.6s8.5-3.3,9.4-7.6h32.7h4c0.9,4.4,4.7,7.6,9.4,7.6
		c4.6,0,8.5-3.3,9.4-7.6h7.8c1.1,0,1.9-0.9,1.9-1.9V45.8C94,36.4,86.3,28.6,76.8,28.6z M32.9,21h7.6v5.9c0,1.1,0.9,1.9,1.9,1.9
		c1.1,0,1.9-0.9,1.9-1.9V21H52v30.6H32.9V21z M19.5,78.3c-3.2,0-5.7-2.6-5.7-5.7c0-3.2,2.6-5.7,5.7-5.7s5.7,2.6,5.7,5.7
		C25.2,75.8,22.7,78.3,19.5,78.3z M59.6,70.7H28.9C28,66.3,24.1,63,19.5,63s-8.5,3.3-9.4,7.6h-4V55.4h5.7H31h22.9h5.7V70.7z
		 M74.9,78.3c-3.2,0-5.7-2.6-5.7-5.7c0-3.2,2.6-5.7,5.7-5.7c3.2,0,5.7,2.6,5.7,5.7C80.7,75.8,78.1,78.3,74.9,78.3z M90.2,70.7h-5.9
		c-0.9-4.4-4.7-7.6-9.4-7.6c-4.6,0-8.5,3.3-9.4,7.6h-2.1V32.5h13.4c7.4,0,13.4,6,13.4,13.4V70.7z" />
    <path class="st1" d="M16.2,40.4H5.4c-0.3,0-0.6-0.3-0.6-0.6v-2.8c0-0.3,0.3-0.6,0.6-0.6h10.8c0.3,0,0.6,0.3,0.6,0.6v2.8
		C16.8,40.2,16.5,40.4,16.2,40.4" />
    <path class="st1" d="M16.2,48H2.4c-0.3,0-0.6-0.3-0.6-0.6v-2.8c0-0.3,0.3-0.6,0.6-0.6h13.8c0.3,0,0.6,0.3,0.6,0.6v2.8
		C16.8,47.7,16.5,48,16.2,48" />
    <path class="st2" d="M76.8,28.6H61.5c-1.1,0-1.9,0.9-1.9,1.9v21h-3.8V19.1c0-1.1-0.9-1.9-1.9-1.9H31c-1.1,0-1.9,0.9-1.9,1.9v9.6
		H11.9c-1.1,0-1.9,0.9-1.9,1.9v1.9h9.4v0h2.1v6.3c0,1.1,0.9,1.9,1.9,1.9c1.1,0,1.9-0.9,1.9-1.9v-6.3h3.8v19.1h-9.7h-5.5H9.9H4.2
		c-1.1,0-1.9,0.9-1.9,1.9v19.1c0,1.1,0.9,1.9,1.9,1.9h5.9c0.9,4.4,4.7,7.6,9.4,7.6s8.5-3.3,9.4-7.6h32.7h4c0.9,4.4,4.7,7.6,9.4,7.6
		c4.6,0,8.5-3.3,9.4-7.6h7.8c1.1,0,1.9-0.9,1.9-1.9V45.8C94,36.4,86.3,28.6,76.8,28.6z M32.9,21h7.6v5.9c0,1.1,0.9,1.9,1.9,1.9
		c1.1,0,1.9-0.9,1.9-1.9V21H52v30.6H32.9V21z M19.5,78.3c-3.2,0-5.7-2.6-5.7-5.7c0-3.2,2.6-5.7,5.7-5.7s5.7,2.6,5.7,5.7
		C25.2,75.8,22.7,78.3,19.5,78.3z M59.6,70.7H28.9C28,66.3,24.1,63,19.5,63s-8.5,3.3-9.4,7.6h-4V55.4h5.7H31h22.9h5.7V70.7z
		 M74.9,78.3c-3.2,0-5.7-2.6-5.7-5.7c0-3.2,2.6-5.7,5.7-5.7c3.2,0,5.7,2.6,5.7,5.7C80.7,75.8,78.1,78.3,74.9,78.3z M90.2,70.7h-5.9
		c-0.9-4.4-4.7-7.6-9.4-7.6c-4.6,0-8.5,3.3-9.4,7.6h-2.1V32.5h13.4c7.4,0,13.4,6,13.4,13.4V70.7z" />
</svg>