<?xml version="1.0" encoding="utf-8"?>
<svg version="1.1" xmlns="http://www.w3.org/2000/svg" x="0px" y="0px" viewBox="0 0 96 96"
    style="enable-background:new 0 0 96 96;" xml:space="preserve">
<path class="st0" d="M47.9,40.4c-10.9,0-21.7,0-32.6,0c0,9.9,0,19.8,0,29.7c8.9,0,17.7,0,26.6,0c0,1,0,1.9,0,3
		c-8.8,0-17.7,0-26.7,0c0,1.5,0,3,0,4.4c0,1.6-0.1,3.2,0.2,4.7c1,6.3,8,9.2,13.4,5.7c1-0.7,2.2-1.1,3.4-1.4c1.7-0.4,3.3,0,4.8,1
		c1.5,1.1,3.2,1.8,5.1,1.9c0,1,0,1.9,0,2.9c-2.2-0.1-4.2-0.7-6-1.9c-2.3-1.5-3.5-1.5-5.8,0c-3.8,2.4-7.8,2.7-11.8,0.6
		c-3.9-2.1-6.1-5.5-6.1-10c-0.1-15.2-0.2-30.4,0-45.5c0.1-8.6,4.5-14.9,12.3-18.6c0.7-0.4,1.1-0.7,1-1.6c-0.1-0.5,0-1.1,0-1.7
		c-1,0-1.9,0-2.9,0c0-1,0-1.9,0-3c0.9,0,1.9,0,2.9,0c0-1.9,0-3.7,0-5.5c0-1.5,0.5-2,2-2c3.7,0,7.3,0,11,0c1.4,0,1.9,0.5,1.9,1.9
		c0,1.8,0,3.6,0,5.5c1,0,1.9,0,2.9,0c0,1,0,2,0,3c-0.9,0-1.9,0-2.9,0c0,0.9,0,1.8,0,2.6c0,0.2,0.4,0.4,0.6,0.5
		c5.8,2.6,9.7,6.8,11.7,12.8c0.5,1.5,0.7,3.1,1.1,4.7c-1.1,0.1-2,0.1-3,0.2c-0.1-0.7-0.2-1.3-0.3-1.9c-1.4-6.6-5.2-11.1-11.5-13.5
		c-1.4-0.5-1.5-0.8-1.5-2.3c0-1,0-2.1,0-3.2c-3,0-5.9,0-8.9,0c0,1,0,2.1,0,3.1c0,1.7-0.1,1.9-1.7,2.4c-7.5,2.7-12.3,10.2-11.6,18.2
		c10.8,0,21.7,0,32.6,0C47.9,38.4,47.9,39.3,47.9,40.4z M37.5,6.3c-3,0-5.9,0-8.8,0c0,1.5,0,2.9,0,4.3c3,0,5.9,0,8.8,0
		C37.5,9.1,37.5,7.7,37.5,6.3z" />
    <path class="st0" d="M56.8,92.5c-2.4,0-4.8,0-7.2,0c-2.8,0-4.7-1.9-4.7-4.7c0-1.1,0.1-2.3,0-3.4c-0.1-1.7,0.1-3.3,1.1-4.8
		c0.2-0.3,0.1-0.8-0.1-1.1c-1.2-1.7-1.1-3.5-0.9-5.4c0.1-0.8,0.7-1.6,0.9-2.4c0.1-0.4,0.2-0.9,0-1.2c-1.2-1.7-1.1-3.5-0.9-5.4
		c0.1-0.8,0.6-1.6,0.9-2.3c0.3-0.5,0.3-0.9,0-1.4c-0.8-1.3-1.1-2.7-1-4.2c0.1-1.7,0-3.3,0-5c0-1.9,0.9-3.3,2.5-4.1
		c0.9-0.5,1.9-0.9,2.8-1.4c0.3-0.2,0.6-0.6,0.6-1c0.1-1.3,0.1-2.7,0-4c0-1.7,0.7-3,2.2-3.8c2.4-1.4,4.9-1.4,7.4-0.1
		c1.6,0.8,2.4,2.2,2.4,4c0,1.3,0,2.6,0,3.9c0,0.5,0.2,0.8,0.6,1c1,0.5,1.9,0.9,2.9,1.5c1.6,0.9,2.4,2.2,2.4,4.1c0,2.2,0.1,4.4,0,6.6
		c-0.1,0.9-0.5,1.8-0.9,2.7c-0.2,0.5-0.3,0.9,0,1.4c1.2,1.6,1.1,3.5,0.9,5.4c-0.1,0.8-0.7,1.5-0.9,2.3c-0.1,0.4-0.2,0.9,0,1.2
		c1.2,1.7,1.1,3.5,0.9,5.4c-0.1,0.8-0.7,1.6-0.9,2.4c-0.1,0.4-0.2,0.9,0,1.2c0.8,1.4,1.1,2.8,1,4.4c-0.1,1.2,0,2.5,0,3.7
		c0,2.8-1.9,4.6-4.7,4.7C61.6,92.5,59.2,92.5,56.8,92.5z M53.9,44.3c0,0.5,0,0.9,0,1.4c0.1,1.2-0.4,1.9-1.4,2.3
		c-1.2,0.5-2.3,1.2-3.5,1.7c-0.7,0.3-1.1,0.9-1,1.7c0,1.4,0.1,2.8,0,4.2c-0.1,1.6,0.2,3,1,4.3c0.6,0.9,0.5,1.7,0,2.6
		c-0.5,0.9-0.8,1.9-1,2.9c-0.2,0.9,0.1,1.9,0.6,2.6c1,1.4,1,2.7,0,4.1C48,73,47.7,73.9,48,74.9c0.2,0.9,0.4,1.8,0.9,2.6
		c0.6,1.1,0.7,2.1,0,3.2c-0.4,0.6-0.8,1.4-0.8,2.1c-0.1,1.7-0.1,3.4,0,5.1c0,1,0.6,1.5,1.6,1.6c0.3,0,0.6,0,0.8,0c4.5,0,9,0,13.6,0
		c1.2,0,1.8-0.5,1.8-1.5c0-1.8,0.1-3.5,0-5.3c0-1.4-0.9-2.1-2.2-2.1c-3.4,0-6.8,0-10.1,0c-0.3,0-0.6,0-1,0c0-1.1,0-2,0-3
		c0.3,0,0.6,0,0.9,0c3.6,0,7.2,0,10.8,0c0.6,0,0.8-0.2,1.1-0.7c0.6-1,0.6-2.1,0.5-3.2c-0.1-1.3-0.9-2-2.2-2c-3.4,0-6.8,0-10.1,0
		c-0.3,0-0.6,0-1,0c0-1.1,0-2,0-3c0.3,0,0.6,0,0.9,0c3.6,0,7.2,0,10.8,0c0.6,0,0.8-0.2,1.1-0.7c0.6-1,0.6-2.1,0.5-3.2
		c-0.1-1.3-0.9-2-2.2-2c-3.4,0-6.8,0-10.1,0c-0.3,0-0.6,0-1,0c0-1.1,0-2,0-3c0.4,0,0.7,0,1.1,0c3.5,0,7.1,0,10.6,0
		c0.3,0,0.7,0,0.8-0.2c0.3-0.7,0.8-1.5,0.8-2.2c0.1-1.9,0-3.9,0-5.9c0-0.8-0.3-1.4-1.1-1.8c-1.3-0.6-2.5-1.3-3.8-1.9
		c-0.7-0.4-1.1-0.9-1-1.7c0-0.6,0-1.2,0-1.7C56.9,45,56.6,45,53.9,44.3z M56.9,42.1c0.9-0.3,1.7-0.5,2.4-0.9c0.7-0.4,0.7-1,0.1-1.5
		c-1.2-1-3.8-1-5,0c-0.6,0.5-0.7,1.1,0,1.5C55.2,41.6,56,41.8,56.9,42.1z" />
    <path class="st0" d="M72.2,91.1c-0.7-0.7-1.3-1.3-2-2c1.4-1.6,4-1.8,5.7-0.4c0.8,0.6,1.6,0.9,2.6,0.8c0.8,0,1.5,0,2.3,0
		c1.5-0.1,2.8-1.2,2.8-2.7c0.1-2,0-4.1,0-6.2c-4,0-7.9,0-11.8,0c0-1,0-1.9,0-3c3.9,0,7.8,0,11.8,0c0-1,0-2,0-3c-3.9,0-7.8,0-11.8,0
		c0-1,0-1.9,0-3c3.9,0,7.8,0,11.8,0c0-1,0-1.9,0-3c-3.9,0-7.8,0-11.8,0c0-1,0-2,0-3c3.9,0,7.8,0,11.9,0c-0.1-0.7-0.1-1.4-0.3-2
		c-1.4-4-1.6-5.5-0.4-9.9c-3.7,0-7.4,0-11.2,0c0-1,0-2,0-3c3.9,0,7.8,0,11.8,0c0-1,0-1.9,0-3c-3.9,0-7.8,0-11.8,0c0-1,0-1.9,0-3
		c3.9,0,7.8,0,11.9,0c-0.1-1-0.2-2-0.3-3c-3.9,0-7.7,0-11.6,0c0-1,0-2,0-3c3.6,0,7.1,0,10.9,0c-0.6-1.2-1.1-2.3-1.8-3.2
		c-1.4-2-2.8-4-4.2-6c-0.3-0.5-0.5-1.1-0.5-1.6c-0.1-1.8,0-3.6,0-5.4c-2,0-3.9,0-5.9,0c0,1.8,0.1,3.5,0,5.3c0,0.7-0.3,1.4-0.6,2
		c-1.5,2.3-3.1,4.5-4.8,6.8c-0.8-0.4-1.6-0.9-2.5-1.4c0.5-0.7,0.9-1.4,1.3-2.1c1.2-1.7,2.9-3.3,3.5-5.2c0.6-1.9,0.1-4.1,0.2-6.2
		c0-0.2,0-0.4,0-0.7c0.1-0.9,0.6-1.5,1.5-1.5c2.9,0,5.9,0,8.8,0c1,0,1.5,0.6,1.5,1.6c0,1.8,0.1,3.7,0,5.5c0,1,0.2,1.7,0.8,2.5
		c1.1,1.5,2.1,3,3.2,4.5c2.3,3.3,3.4,6.9,3.5,10.9c0,2.1,0.1,4.2,0,6.3c-0.1,1.6-0.5,3.2-1,4.8c-0.5,1.8-0.6,3.5,0,5.2
		c0.8,2.2,1.1,4.5,1.1,6.8c-0.1,6.1,0,12.3,0,18.4c0,4-2.5,6.4-6.4,6.4c-0.9,0-1.8,0.1-2.7,0c-1-0.2-2-0.5-2.8-1
		C73.8,90.8,73.1,90.5,72.2,91.1z" />
    <path class="st0"
        d="M18.3,49.4c1,0,1.9,0,2.8,0c0,4.4,0,8.8,0,13.3c-0.9,0-1.8,0-2.8,0C18.3,58.2,18.3,53.8,18.3,49.4z" />
    <path class="st0" d="M22.4,25.6c0.7,0.8,1.3,1.4,2,2.2c-1.7,1.9-2.8,4.2-3.1,6.8c-1-0.1-1.9-0.2-2.9-0.3
		C18.7,30.9,20.1,28.2,22.4,25.6z" />
    <path class="st0"
        d="M26.4,26c-0.5-0.8-1-1.6-1.6-2.5c1.2-0.6,2.4-1.2,3.7-1.8c0.3,1,0.6,1.9,0.9,2.8C28.4,25,27.5,25.5,26.4,26z" />
    <path class="st0"
        d="M18.2,46.3c0-1,0-1.9,0-2.9c0.9,0,1.9,0,2.9,0c0,0.9,0,1.9,0,2.9C20.2,46.3,19.3,46.3,18.2,46.3z" />
    <path class="st0"
        d="M51,52.4c1,0,1.9,0,2.9,0c0,1.4,0,2.9,0,4.4c-0.9,0-1.9,0-2.9,0C51,55.3,51,53.8,51,52.4z" />
</svg>