<?xml version="1.0" encoding="utf-8"?>
<svg version="1.1" id="Layer_1" xmlns="http://www.w3.org/2000/svg" x="0px" y="0px"
    viewBox="0 0 154 154" style="enable-background:new 0 0 154 154;" xml:space="preserve">
    <path class="st0" d="M139.5,151.7c-0.1-14.9-4.7-28.2-14.2-39.6c-10.5-12.7-24-20.4-40.4-22.4c-19-2.3-35.8,3-50,15.9
	c-11.6,10.6-18.2,23.8-20.1,39.4c-0.3,2.2-0.2,4.4-0.4,6.6c-3.9,0-7.7,0-11.6,0c1.2-34.2,18.5-57,49.5-70.3
	c-0.3-0.2-0.7-0.5-1.1-0.9c-10.8-8.4-16.6-19.4-17.1-33.1c-0.3-8.9,2.1-17.1,7-24.5c5.9-8.8,13.9-14.9,24.2-17.7
	c2.9-0.8,5.8-1.1,8.8-1.7c1.9,0,3.9,0,5.8,0c2.3,0.4,4.7,0.6,7,1.2C102.9,9,113.8,19,118.2,35c4.6,16.8-0.1,31.3-12.7,43.2
	c-1.2,1.2-2.6,2.2-4.1,3.4c0.4,0.2,0.7,0.3,1,0.5c10,3.7,18.8,9.2,26.4,16.7c11.2,11.1,18.3,24.4,21.1,40c0.5,2.8,0.8,5.7,1.2,8.6
	c0,1.4,0,2.9,0,4.3C147.2,151.7,143.4,151.7,139.5,151.7z M77,77.6c17.1,0,31.2-13.9,31.3-31.1c0.1-17.2-14-31.3-31.2-31.4
	C59.9,15,45.9,29,45.7,46.2C45.6,63.4,59.7,77.6,77,77.6z" />
</svg>